{
	"description": "Theme for travel and tour business",
	"name": "Travel17",
	"uniquename": "travel17",
	"type": "theme",
	"author":"SprintDesigns Team",
	"banner": "base-image.jpg",
	"template":{
		"frontpage":"frontpage.php",
		"fullwidth":"fullwidth.php"
	},
	"slider":{
		"image_1":"Travel17/slider/s1.jpg",
		"image_2":"Travel17/slider/s2.jpg",
		"image_3":"Travel17/slider/s3.jpg"
	},
	"section":{
		"section1":{
			"title":"Main Banner",
			"file":"main-banner.php",
			"class_img":""
		},
		"section2":{
			"title":"Booking Form",
			"file":"booking-form.php",
			"class_img":""
		},
		"section3":{
			"title":"Contact Form",
			"file":"contact-form.php",
			"class_img":""
		}
	},
	"pages":{
		"Home":{
			"template":"frontpage.php",
			"sections":[
				"main-banner.php",
				"booking-form.php"
			]
		},
		"About_Us":{
			"template":"fullwidth.php",
			"sections":[
			]
		},
		"Packages":{
			"template":"fullwidth.php",
			"sections":[
			]
		},
		"Services":{
			"template":"fullwidth.php",
			"sections":[
			]
		},
		"Contact":{
			"template":"fullwidth.php",
			"status": true,
			"sections":[
			       	"contact-form.php"
			]
		},
		"Package1":{
			"template":"fullwidth.php",
			"status": false,
			"sections":[
			]
		},
		"Package2":{
			"template":"fullwidth.php",
			"status": false,
			"sections":[
			]
		},
		"Package3":{
			"template":"fullwidth.php",
			"status": false,
			"sections":[
			]
		},
		"Package4":{
			"template":"fullwidth.php",
			"status": false,
			"sections":[
			]
		}
	}

}
