{
	"description": "Theme for Food and Resto Industry",
	"name": "Food8",
	"uniquename": "Food8",
	"type": "theme",
	"author":"SprintDesigns Team",
	"banner": "base-image.jpg",
	"template":{
		"frontpage":"frontpage.php",
		"fullwidth":"fullwidth.php"
	},
	"slider":{
		"image_1":"Food8/img/banner1.jpg",
		"image_2":"Food8/img/banner2.jpg",
		"image_3":"Food8/img/banner3.jpg"
	},
	"section":{
		"section1":{
			"title":"Banner",
			"file":"banner.php",
			"class_img":""
		},
		"section2":{
			"title":"Welcome",
			"file":"welcome.php",
			"class_img":""
		},
		"section3":{
			"title":"Photos",
			"file":"photos.php",
			"class_img":""
		},
		"section4":{
			"title":"Contact Form",
			"file":"contact-form.php",
			"class_img":""
		}			
	},
	"pages":{
		"home":{
			"template":"frontpage.php",
			"sections":[
				"banner.php",
				"welcome.php",
				"photos.php",
				"contact-form.php"
			]
		},
		"about_us":{
			"template":"fullwidth.php",
			"sections":[
				"welcome.php"
			]
		},
		"services":{
			"template":"fullwidth.php",
			"sections":[
				"welcome.php"
			]
		},
		"contact_us":{
			"template":"fullwidth.php",
			"sections":[
				"welcome.php"
			]
		}
	}

}